Life Expectancy
…
data <- data %>% drop_na(Alcohol)

For GDP, since most of the NA values for GDP come from the same countries(multiple NA GDP for one country), we deleted the rows which contain the NA values.

data[which(is.na(data$GDP)),]

## # A tibble: 406 x 9
## # Groups:   Country [193]
##    Country  Year Status Life.expectancy Alcohol Total.expenditu~   GDP
##    <fct>   <int> <fct>            <dbl>   <dbl>            <dbl> <dbl>
##  1 Bahamas  2015 Devel~            76.1   10.2              6.71    NA
##  2 Bahamas  2014 Devel~            75.4    9.45             7.74    NA
##  3 Bahamas  2013 Devel~            74.8    9.42             7.5     NA
##  4 Bahamas  2012 Devel~            74.9    9.5              7.43    NA
##  5 Bahamas  2011 Devel~            75      9.34             7.63    NA
##  6 Bahamas  2010 Devel~            75      9.19             7.44    NA
##  7 Bahamas  2009 Devel~            74.6    9.29             7.43    NA
##  8 Bahamas  2008 Devel~            74.5   10.2              7.3     NA
##  9 Bahamas  2007 Devel~            74.4   10.8              7.8     NA
## 10 Bahamas  2006 Devel~            74.2   11.1              6.93    NA
## # ... with 396 more rows, and 2 more variables: Population <dbl>,
## #   Income.composition.of.resources <dbl>

data <- data %>% drop_na(GDP)

For Population, again its just that we have countries which contain the population record for all the year from 2000-2015, OR countries which dont have records at all for population because its difficult to get population data from certain countries. Therefore, we deleted those rows.

sum(is.na(data$Population))

## [1] 220

data[which(is.na(data$Population)),]

## # A tibble: 220 x 9
## # Groups:   Country [193]
##    Country  Year Status Life.expectancy Alcohol Total.expenditu~    GDP
##    <fct>   <int> <fct>            <dbl>   <dbl>            <dbl>  <dbl>
##  1 Antigu~  2015 Devel~            76.4    7.84             4.79 13567.
##  2 Antigu~  2014 Devel~            76.2    8.56             5.54 12888.
##  3 Antigu~  2013 Devel~            76.1    8.58             5.33 12225.
##  4 Antigu~  2012 Devel~            75.9    8.18             5.39 12565.
##  5 Antigu~  2011 Devel~            75.7    7.84             5.65 11929.
##  6 Antigu~  2010 Devel~            75.6    7.84             5.63 12127.
##  7 Antigu~  2009 Devel~            75.4    7.82             4.86  1312.
##  8 Antigu~  2008 Devel~            75.2    8.27             4.69  1473.
##  9 Antigu~  2007 Devel~            75      8.64             4.27 14252.
## 10 Antigu~  2006 Devel~            74.8    8.93             4.34 12724.
## # ... with 210 more rows, and 2 more variables: Population <dbl>,
## #   Income.composition.of.resources <dbl>
…
